[
  {
    "order_id": 7111,
    "gateway_id": 15,
    "customer_id": 1482,
    "sub_total_price": 128.94,
    "calculated_discount": 0,
    "tax": 9.03,
    "shipping_handling_cost": 0,
    "total_price": 95.19,
    "total_captured": 95.19,
    "payment_id": "check",
    "payment_status": 2,
    "order_date": "2020-04-07 10:50:51",
    "order_status": 3,
    "notes": "",
    "last_action_date": "2020-04-07 11:54:50",
    "invoice_notes": null,
    "promo_code": null,
    "created_at": "2020-04-07 10:50:51",
    "updated_at": "2020-04-07 11:54:50",
    "ip_address": null,
    "avs_failed": null,
    "referal": "",
    "pickup_time": "2020-04-07 10:50:00",
    "tip": 0,
    "credit": 0,
    "returns": 0,
    "change_val": null,
    "terms": null,
    "iteration": 2,
    "refunds": 42.78,
    "tax_region": 7.74,
    "tax_county": 1.29,
    "tax_city": 0,
    "tax_special": 0,
    "tax_shipping": 0,
    "cc_bin": null,
    "cc_account": "",
    "cc_type": null,
    "items": [
      {
        "item_id": "137841",
        "item_title": "Quaker Honey Oak Tray Table",
        "variant_group_name": "N\/A",
        "qty": "2",
        "qty_fulfilled": "2",
        "offer_price": "16.99",
        "discounted_price": "16.99",
        "qty_discount": null,
        "qty_discount_type": null,
        "bundle_id": null,
        "bundle_discount": null,
        "bundle_discount_type": null,
        "tax": "2.38",
        "tax_region": null,
        "tax_county": "0.34",
        "tax_city": "0.00",
        "tax_special": "0.00",
        "tax_shipping": null,
        "region_shipping_origin": "Florida",
        "zip_shipping_origin": null,
        "status": "0",
        "notes": null,
        "reviewed": null,
        "qty_captured": null,
        "shipping_info_id": "10021",
        "cog": "0.00",
        "qty_refunded": null,
        "last_qty_refunded": null,
        "comission": "0",
        "acc_for": null,
        "special_instruction": "0",
        "order_iteraction": "1",
        "warehouse_bin": "",
        "location": "Dropshipper"
      },
      {
        "item_id": "137840",
        "item_title": "FLOOR LAMP TORCHRE BLACK",
        "variant_group_name": "N\/A",
        "qty": "1",
        "qty_fulfilled": "1",
        "offer_price": "34.99",
        "discounted_price": "34.99",
        "qty_discount": null,
        "qty_discount_type": null,
        "bundle_id": null,
        "bundle_discount": null,
        "bundle_discount_type": null,
        "tax": "2.45",
        "tax_region": null,
        "tax_county": "0.35",
        "tax_city": "0.00",
        "tax_special": "0.00",
        "tax_shipping": null,
        "region_shipping_origin": "Florida",
        "zip_shipping_origin": null,
        "status": "0",
        "notes": null,
        "reviewed": null,
        "qty_captured": null,
        "shipping_info_id": "10021",
        "cog": "0.00",
        "qty_refunded": null,
        "last_qty_refunded": null,
        "comission": "0",
        "acc_for": null,
        "special_instruction": "0",
        "order_iteraction": "1",
        "warehouse_bin": "",
        "location": "Dropshipper"
      },
      {
        "item_id": "137800",
        "item_title": "amy howard at home 12 oz  furniture lacquer gloss finish",
        "variant_group_name": "kumquat",
        "qty": "2",
        "qty_fulfilled": "2",
        "offer_price": "19.99",
        "discounted_price": "19.99",
        "qty_discount": null,
        "qty_discount_type": null,
        "bundle_id": null,
        "bundle_discount": null,
        "bundle_discount_type": null,
        "tax": "2.80",
        "tax_region": null,
        "tax_county": "0.40",
        "tax_city": "0.00",
        "tax_special": "0.00",
        "tax_shipping": null,
        "region_shipping_origin": "Florida",
        "zip_shipping_origin": null,
        "status": "0",
        "notes": null,
        "reviewed": null,
        "qty_captured": null,
        "shipping_info_id": "10021",
        "cog": "0.00",
        "qty_refunded": "1",
        "last_qty_refunded": "1",
        "comission": "0",
        "acc_for": null,
        "special_instruction": "0",
        "order_iteraction": "2",
        "warehouse_bin": "",
        "location": "Dropshipper"
      },
      {
        "item_id": "137800",
        "item_title": "amy howard at home 12 oz  furniture lacquer gloss finish",
        "variant_group_name": "eggplant",
        "qty": "1",
        "qty_fulfilled": "1",
        "offer_price": "19.99",
        "discounted_price": "19.99",
        "qty_discount": null,
        "qty_discount_type": null,
        "bundle_id": null,
        "bundle_discount": null,
        "bundle_discount_type": null,
        "tax": "1.40",
        "tax_region": null,
        "tax_county": "0.20",
        "tax_city": "0.00",
        "tax_special": "0.00",
        "tax_shipping": null,
        "region_shipping_origin": "Florida",
        "zip_shipping_origin": null,
        "status": "0",
        "notes": null,
        "reviewed": null,
        "qty_captured": null,
        "shipping_info_id": "10021",
        "cog": "0.00",
        "qty_refunded": "1",
        "last_qty_refunded": "1",
        "comission": "0",
        "acc_for": null,
        "special_instruction": "0",
        "order_iteraction": "2",
        "warehouse_bin": "",
        "location": "Dropshipper"
      }
    ],
    "history": [
      {
        "customer_id": 1482,
        "gateway_id": 15,
        "amount": 137.97,
        "payment_id ": "check",
        "payment_status": 2,
        "action_date": "2020-04-07 10:50:51",
        "action_status": 1,
        "notes": "",
        "created_at": "2020-04-07 10:50:51",
        "updated_at": "2020-04-07 10:50:51",
        "package_id": null,
        "clerk_id": 1479,
        "terminal_payment_id": null,
        "balance": 0,
        "cc_bin": null,
        "cc_account": "",
        "cc_type": null
      },
      {
        "customer_id": 1482,
        "gateway_id": 15,
        "amount": 137.97,
        "payment_id ": "check",
        "payment_status": 2,
        "action_date": "2020-04-07 10:50:54",
        "action_status": 8,
        "notes": null,
        "created_at": "2020-04-07 10:50:51",
        "updated_at": "2020-04-07 10:50:54",
        "package_id": null,
        "clerk_id": 1479,
        "terminal_payment_id": null,
        "balance": null,
        "cc_bin": null,
        "cc_account": null,
        "cc_type": null
      },
      {
        "customer_id": 1482,
        "gateway_id": 15,
        "amount": 137.97,
        "payment_id ": "check",
        "payment_status": 2,
        "action_date": "2020-04-07 10:50:54",
        "action_status": 8,
        "notes": null,
        "created_at": "2020-04-07 10:50:51",
        "updated_at": "2020-04-07 10:50:54",
        "package_id": null,
        "clerk_id": 1479,
        "terminal_payment_id": null,
        "balance": null,
        "cc_bin": null,
        "cc_account": null,
        "cc_type": null
      },
      {
        "customer_id": 1482,
        "gateway_id": 14,
        "amount": 42.78,
        "payment_id ": "check",
        "payment_status": 2,
        "action_date": "2020-04-07 11:54:49",
        "action_status": 14,
        "notes": "$42.78 All Refunds. This Refund:",
        "created_at": "2020-04-07 10:50:51",
        "updated_at": "2020-04-07 11:54:49",
        "package_id": null,
        "clerk_id": null,
        "terminal_payment_id": null,
        "balance": null,
        "cc_bin": null,
        "cc_account": null,
        "cc_type": null
      }
    ],
    "customer_info": {
      "email": "demo-test2@test.com",
      "first_name": "demo",
      "last_name": "test2",
      "phone": "9547902624",
      "country": "United States",
      "state": "Florida",
      "zip": "33071",
      "city": "Coral Springs",
      "street": "10002 NW 20TH ST",
      "street2": "",
      "created_at": "2020-04-07 10:50:04",
      "updated_at": "2020-04-07 10:50:04",
      "age_range": 69,
      "gender": "M",
      "birthdate": "1969-12-31 00:00:00",
      "ein": "",
      "landline": "",
      "notes": " ",
      "appointent": null,
      "contact_preference": 0,
      "carrier": null,
      "balance": null,
      "store_credit_returned": null,
      "store_credit_redeemed": null,
      "store_credit_last_redemption": null,
      "loyalty_earned": 0,
      "loyalty_last_redemption": null,
      "total_spent": 137.97,
      "balance_paid": null,
      "last_spend": 137.97,
      "balance_last_paid_date": null,
      "last_spend_date": "2020-04-07 10:50:51",
      "discount": null,
      "loyalty_factor": null
    }
  }
]